[
    {
        "id": "1",
        "firstname": "John",
        "lastname": "Doe",
        "username": "John1",
        "type": "Employee",
        "last_login": "2015-01-12T12:01:34+0100"
    },
    {
        "id": "2",
        "firstname": "Mary",
        "lastname": "Jane",
        "username": "Mary23",
        "type": "Employee",
        "last_login": "2014-11-01T13:45:42+0100"
    },
    {
        "id": "3",
        "firstname": "David",
        "lastname": "Payne",
        "username": "Dpayne",
        "type": "Manager",
        "last_login": "2014-09-23T09:35:02+0200"
    },
    {
        "id": "4",
        "firstname": "Joe",
        "lastname": "Public",
        "username": "joey99",
        "type": "Employee",
        "last_login": "2014-09-22T08:23:54+0200"
    },
    {
        "id": "5",
        "firstname": "Gary",
        "lastname": "May",
        "username": "gary23",
        "type": "Manager",
        "last_login": "2015-01-02T12:09:35+0100"
    },
    {
        "id": "6",
        "firstname": "Jessica",
        "lastname": "James",
        "username": "jj56",
        "type": "Employee",
        "last_login": "2015-01-13T08:56:12+0100"
    },
    {
        "id": "7",
        "firstname": "Frank",
        "lastname": "Bruno",
        "username": "franky",
        "type": "employee",
        "last_login": "2015-01-12T16:15:43+0100"
    },
    {
        "id": "8",
        "firstname": "Bob",
        "lastname": "Marley",
        "username": "bobby3",
        "type": "Manager",
        "last_login": "2015-02-01T13:01:00+0100"
    },
    {
        "id": "9",
        "firstname": "Shaun",
        "lastname": "Stevens",
        "username": "shaun",
        "type": "Employee",
        "last_login": "2015-02-01T13:00:00+0100"
    },
    {
        "id": "10",
        "firstname": "Ruby",
        "lastname": "Wax",
        "username": "ruby",
        "type": "Employee",
        "last_login": "2014-12-12T08:09:13+0100"
    }
]
